@startuml

!theme sketchy-outline
scale 2/3

(*) --> if "langue du client NL ou PL ?" then

  -left->[oui] "NL ou PL"

else

  -right->[non] "utilise le codepays du magasin de rattachement"

  if "codepays PL, RE, LB, DZ, TN, ES ?" then
    ->[oui] "PL, RE, LB, DZ, TN ou ES"
  else
    [non]if "codepays FR, BE ?" then
      -right->[oui] "utilise le codepays de l'adresse du client"
    else
      -left->[non] "WEB_INTL"
    endif
  endif

endif

@enduml